//		아이템 정보		//


*이름		"익스트림 아머"
*Name		"Extreme Armor"
*코드		"DA116"
*발생제한	5

///////////////	공통사항		 ////////////

*내구력		120 140
*무게		94
*가격		92000

///////////////	원소		/////////////

*생체		6 11
*불		6 11
*냉기		6 11
*번개		6 11
*독		6 11

///////////////	공격성능		/////////////
// 추가요인	최소	최대	

*공격력		
*사정거리		
*공격속도		
*명중력		
*크리티컬		

//////////////	방어성능		/////////////
// 추가요인

*흡수력		5.3 5.899
//*흡수력		10.1 10.699
*방어력		250 270
*블럭율		

//////////////	이동성능		/////////////
// 추가요인

*이동속도		

//////////////	저장공간		/////////////
// 소켓공간할당

*보유공간		

//////////////	특수능력		/////////////
// 추가요인

*생명력재생	
*기력재생
*근력재생
*생명력추가
*기력추가		
*근력추가
*마법기술숙련도	

//////////////	요구특성		/////////////
// 사용제한 요구치

*레벨		70
*힘		166
*정신력		
*재능		80
*민첩성		
*건강		

/////////////	회복약		 ////////////
// 추가요인	최소	최대

*생명력상승
*기력상승		
*근력상승

//////////////	캐릭터특성	/////////////
// 캐릭터별 특화성능

**특화랜덤 Mechanician Fighter Pikeman Archer Knight Atalanta
// Rogue Pilgrim//

**흡수력	0.7	1.399
**방어력	34	44

*연결파일        "name\da116.zhoon"