//		아이템 정보		//


*이름		"맬리스 로저리"
*Name		"Malice Rosary"
*코드		"OM124"

///////////////	공통사항		 ////////////

*내구력		114	134
*무게		55
*가격		750000

///////////////	원소		/////////////

*생체		5 9
*불		5 9
*냉기		5 9
*번개		5 9
*독		5 9

///////////////	공격성능		/////////////
// 추가요인	최소	최대	

*공격력		
*사정거리		
*공격속도		
*명중력		
*크리티컬		

//////////////	방어성능		/////////////
// 추가요인

*흡수력		7.7	8.099
*방어력		158	170
*블럭율		

//////////////	신발성능		/////////////
// 추가요인

*이동속도		

//////////////	저장공간		/////////////
// 소켓공간할당

*보유공간		

//////////////	특수능력		/////////////
// 추가요인

*생명력재생	
*기력재생
*근력재생
*생명력추가
*기력추가	70	83
*근력추가
*마법기술숙련도	

//////////////	요구특성		/////////////
// 사용제한 요구치

*레벨		105
*힘		
*정신력		168
*재능		
*민첩성		
*건강		

/////////////	회복약		 ////////////
// 추가요인	최소	최대

*생명력상승
*기력상승		
*근력상승	

//////////////	캐릭터특성	/////////////
// 캐릭터별 특화성능

**특화랜덤 Priestess Magician

// Prayer Shaman//

**흡수력	1.2	1.799
**기력재생	1.2	1.799


*연결파일	"name\OM124.zhoon"