//		아이템 정보		//


*이름		"그레이트 액스"
*Name		"Great Axe"
*코드		"WA109"

///////////////	공통사항		 ////////////

*내구력		70 100
*무게		35
*가격		26000

///////////////	원소		/////////////

*생체		
*대자연		
*불		
*냉기		
*번개		
*독		
*물		
*바람		

///////////////	공격성능		/////////////
// 추가요인	최소	최대	

*공격력		16 19	26 30
*사정거리	
*공격속도	5
*명중력		70 81
*크리티컬	13

//////////////	방어성능		/////////////
// 추가요인

*흡수력		
*방어력		
*블럭율		7 7

//////////////	신발성능		/////////////
// 추가요인

*이동속도		

//////////////	저장공간		/////////////
// 소켓공간할당

*보유공간		

//////////////	특수능력		/////////////
// 추가요인

*생명력재생	
*기력재생	
*근력재생	
*생명력추가	
*기력추가	
*근력추가	
*마법기술숙련도	

//////////////	요구특성		/////////////
// 사용제한 요구치

*레벨		44
*힘		110
*정신력		
*재능		60
*민첩성		
*건강		

/////////////	회복약		 ////////////
// 추가요인	최소	최대

*생명력상승	
*기력상승	
*근력상승	

//////////////	캐릭터특성	/////////////
// 캐릭터별 특화성능

**특화 Fighter
**특화랜덤 Pikeman
//Rogue Pilgrim //

**공격력	0	6
**공격속도	2

*연결파일	"name\WA109.zhoon"